id,learning rate,exploration rate,discount rate,precision,alive reward,death reward,start time,duration,final score,tag
0,0.7,0,1,"(10.0, 10.0)",1,-1000,3/27/2014 10:12:23 AM,0.534,0,
1,0.7,0,1,"(10.0, 10.0)",1,-1000,3/27/2014 10:12:23 AM,0.838,0,
2,0.7,0,1,"(10.0, 10.0)",1,-1000,3/27/2014 10:12:24 AM,0.535,0,
3,0.7,0,1,"(10.0, 10.0)",1,-1000,3/27/2014 10:12:25 AM,0.526,0,
4,0.7,0,1,"(10.0, 10.0)",1,-1000,3/27/2014 10:12:26 AM,0.52,0,
5,0.7,0,1,"(10.0, 10.0)",1,-1000,3/27/2014 10:12:26 AM,0.508,0,
6,0.7,0,1,"(10.0, 10.0)",1,-1000,3/27/2014 10:12:27 AM,0.523,0,
7,0.7,0,1,"(10.0, 10.0)",1,-1000,3/27/2014 10:12:28 AM,0.521,0,
8,0.7,0,1,"(10.0, 10.0)",1,-1000,3/27/2014 10:12:28 AM,0.835,0,
9,0.7,0,1,"(10.0, 10.0)",1,-1000,3/27/2014 10:12:29 AM,0.525,0,
10,0.7,0,1,"(10.0, 10.0)",1,-1000,3/27/2014 10:12:30 AM,0.522,0,
11,0.7,0,1,"(10.0, 10.0)",1,-1000,3/27/2014 10:12:31 AM,0.52,0,
12,0.7,0,1,"(10.0, 10.0)",1,-1000,3/27/2014 10:12:31 AM,0.505,0,
13,0.7,0,1,"(10.0, 10.0)",1,-1000,3/27/2014 10:12:32 AM,1.133,0,
14,0.7,0,1,"(10.0, 10.0)",1,-1000,3/27/2014 10:12:33 AM,0.91,0,
15,0.7,0,1,"(10.0, 10.0)",1,-1000,3/27/2014 10:12:34 AM,0.87,0,
16,0.7,0,1,"(10.0, 10.0)",1,-1000,3/27/2014 10:12:35 AM,0.851,0,
17,0.7,0,1,"(10.0, 10.0)",1,-1000,3/27/2014 10:12:36 AM,1.149,0,
18,0.7,0,1,"(10.0, 10.0)",1,-1000,3/27/2014 10:12:37 AM,0.519,0,
19,0.7,0,1,"(10.0, 10.0)",1,-1000,3/27/2014 10:12:38 AM,0.522,0,
20,0.7,0,1,"(10.0, 10.0)",1,-1000,3/27/2014 10:12:39 AM,0.851,0,
21,0.7,0,1,"(10.0, 10.0)",1,-1000,3/27/2014 10:12:40 AM,0.836,0,
22,0.7,0,1,"(10.0, 10.0)",1,-1000,3/27/2014 10:12:41 AM,0.824,0,
23,0.7,0,1,"(10.0, 10.0)",1,-1000,3/27/2014 10:12:42 AM,0.522,0,
24,0.7,0,1,"(10.0, 10.0)",1,-1000,3/27/2014 10:12:42 AM,0.901,0,
25,0.7,0,1,"(10.0, 10.0)",1,-1000,3/27/2014 10:12:43 AM,1.249,0,
26,0.7,0,1,"(10.0, 10.0)",1,-1000,3/27/2014 10:12:45 AM,0.836,0,
27,0.7,0,1,"(10.0, 10.0)",1,-1000,3/27/2014 10:12:46 AM,1.464,0,
28,0.7,0,1,"(10.0, 10.0)",1,-1000,3/27/2014 10:12:47 AM,1.186,0,
29,0.7,0,1,"(10.0, 10.0)",1,-1000,3/27/2014 10:12:48 AM,0.519,0,
30,0.7,0,1,"(10.0, 10.0)",1,-1000,3/27/2014 10:12:49 AM,0.853,0,
31,0.7,0,1,"(10.0, 10.0)",1,-1000,3/27/2014 10:12:50 AM,0.836,0,
32,0.7,0,1,"(10.0, 10.0)",1,-1000,3/27/2014 10:12:51 AM,0.52,0,
33,0.7,0,1,"(10.0, 10.0)",1,-1000,3/27/2014 10:12:52 AM,1.138,0,
34,0.7,0,1,"(10.0, 10.0)",1,-1000,3/27/2014 10:12:53 AM,1.515,0,
35,0.7,0,1,"(10.0, 10.0)",1,-1000,3/27/2014 10:12:55 AM,1.5,0,
36,0.7,0,1,"(10.0, 10.0)",1,-1000,3/27/2014 10:12:56 AM,0.522,0,
37,0.7,0,1,"(10.0, 10.0)",1,-1000,3/27/2014 10:12:57 AM,1.518,0,
38,0.7,0,1,"(10.0, 10.0)",1,-1000,3/27/2014 10:12:59 AM,0.521,0,
39,0.7,0,1,"(10.0, 10.0)",1,-1000,3/27/2014 10:12:59 AM,1.515,0,
40,0.7,0,1,"(10.0, 10.0)",1,-1000,3/27/2014 10:13:01 AM,1.431,0,
41,0.7,0,1,"(10.0, 10.0)",1,-1000,3/27/2014 10:13:02 AM,1.536,0,
42,0.7,0,1,"(10.0, 10.0)",1,-1000,3/27/2014 10:13:04 AM,1.149,0,
43,0.7,0,1,"(10.0, 10.0)",1,-1000,3/27/2014 10:13:05 AM,1.515,0,
44,0.7,0,1,"(10.0, 10.0)",1,-1000,3/27/2014 10:13:07 AM,0.521,0,
45,0.7,0,1,"(10.0, 10.0)",1,-1000,3/27/2014 10:13:08 AM,1.444,0,
46,0.7,0,1,"(10.0, 10.0)",1,-1000,3/27/2014 10:13:09 AM,1.514,0,
47,0.7,0,1,"(10.0, 10.0)",1,-1000,3/27/2014 10:13:11 AM,1.518,0,
48,0.7,0,1,"(10.0, 10.0)",1,-1000,3/27/2014 10:13:13 AM,0.953,0,
49,0.7,0,1,"(10.0, 10.0)",1,-1000,3/27/2014 10:13:14 AM,1.499,0,
50,0.7,0,1,"(10.0, 10.0)",1,-1000,3/27/2014 10:13:15 AM,0.521,0,
51,0.7,0,1,"(10.0, 10.0)",1,-1000,3/27/2014 10:13:16 AM,0.919,0,
52,0.7,0,1,"(10.0, 10.0)",1,-1000,3/27/2014 10:13:17 AM,1.523,0,
53,0.7,0,1,"(10.0, 10.0)",1,-1000,3/27/2014 10:13:19 AM,0.935,0,
54,0.7,0,1,"(10.0, 10.0)",1,-1000,3/27/2014 10:13:20 AM,0.954,0,
55,0.7,0,1,"(10.0, 10.0)",1,-1000,3/27/2014 10:13:21 AM,1.5,0,
56,0.7,0,1,"(10.0, 10.0)",1,-1000,3/27/2014 10:13:22 AM,1.646,1,
57,0.7,0,1,"(10.0, 10.0)",1,-1000,3/27/2014 10:13:24 AM,1.513,0,
58,0.7,0,1,"(10.0, 10.0)",1,-1000,3/27/2014 10:13:26 AM,1.514,0,
59,0.7,0,1,"(10.0, 10.0)",1,-1000,3/27/2014 10:13:27 AM,1.515,0,
60,0.7,0,1,"(10.0, 10.0)",1,-1000,3/27/2014 10:13:29 AM,1.779,1,
61,0.7,0,1,"(10.0, 10.0)",1,-1000,3/27/2014 10:13:31 AM,0.52,0,
62,0.7,0,1,"(10.0, 10.0)",1,-1000,3/27/2014 10:13:32 AM,1.21,0,
63,0.7,0,1,"(10.0, 10.0)",1,-1000,3/27/2014 10:13:33 AM,1.513,0,
64,0.7,0,1,"(10.0, 10.0)",1,-1000,3/27/2014 10:13:35 AM,0.524,0,
65,0.7,0,1,"(10.0, 10.0)",1,-1000,3/27/2014 10:13:35 AM,1.517,0,
66,0.7,0,1,"(10.0, 10.0)",1,-1000,3/27/2014 10:13:37 AM,2.183,1,
67,0.7,0,1,"(10.0, 10.0)",1,-1000,3/27/2014 10:13:39 AM,0.524,0,
68,0.7,0,1,"(10.0, 10.0)",1,-1000,3/27/2014 10:13:40 AM,1.51,0,
69,0.7,0,1,"(10.0, 10.0)",1,-1000,3/27/2014 10:13:42 AM,1.52,0,
70,0.7,0,1,"(10.0, 10.0)",1,-1000,3/27/2014 10:13:43 AM,0.955,0,
71,0.7,0,1,"(10.0, 10.0)",1,-1000,3/27/2014 10:13:44 AM,0.524,0,
72,0.7,0,1,"(10.0, 10.0)",1,-1000,3/27/2014 10:13:45 AM,1.513,0,
73,0.7,0,1,"(10.0, 10.0)",1,-1000,3/27/2014 10:13:47 AM,0.852,0,
74,0.7,0,1,"(10.0, 10.0)",1,-1000,3/27/2014 10:13:48 AM,1.523,0,
75,0.7,0,1,"(10.0, 10.0)",1,-1000,3/27/2014 10:13:49 AM,0.921,0,
76,0.7,0,1,"(10.0, 10.0)",1,-1000,3/27/2014 10:13:50 AM,0.936,0,
77,0.7,0,1,"(10.0, 10.0)",1,-1000,3/27/2014 10:13:51 AM,0.852,0,
78,0.7,0,1,"(10.0, 10.0)",1,-1000,3/27/2014 10:13:52 AM,1.514,0,
79,0.7,0,1,"(10.0, 10.0)",1,-1000,3/27/2014 10:13:54 AM,0.853,0,
80,0.7,0,1,"(10.0, 10.0)",1,-1000,3/27/2014 10:13:55 AM,1.749,1,
81,0.7,0,1,"(10.0, 10.0)",1,-1000,3/27/2014 10:13:57 AM,0.523,0,
82,0.7,0,1,"(10.0, 10.0)",1,-1000,3/27/2014 10:13:58 AM,1.933,1,
83,0.7,0,1,"(10.0, 10.0)",1,-1000,3/27/2014 10:14:00 AM,1.515,0,
84,0.7,0,1,"(10.0, 10.0)",1,-1000,3/27/2014 10:14:01 AM,2.134,1,
85,0.7,0,1,"(10.0, 10.0)",1,-1000,3/27/2014 10:14:04 AM,1.304,0,
86,0.7,0,1,"(10.0, 10.0)",1,-1000,3/27/2014 10:14:05 AM,0.851,0,
87,0.7,0,1,"(10.0, 10.0)",1,-1000,3/27/2014 10:14:06 AM,1.513,0,
88,0.7,0,1,"(10.0, 10.0)",1,-1000,3/27/2014 10:14:08 AM,2.394,1,
89,0.7,0,1,"(10.0, 10.0)",1,-1000,3/27/2014 10:14:10 AM,1.506,0,
90,0.7,0,1,"(10.0, 10.0)",1,-1000,3/27/2014 10:14:12 AM,2.931,2,
91,0.7,0,1,"(10.0, 10.0)",1,-1000,3/27/2014 10:14:15 AM,0.523,0,
92,0.7,0,1,"(10.0, 10.0)",1,-1000,3/27/2014 10:14:15 AM,1.703,1,
93,0.7,0,1,"(10.0, 10.0)",1,-1000,3/27/2014 10:14:17 AM,1.514,0,
94,0.7,0,1,"(10.0, 10.0)",1,-1000,3/27/2014 10:14:19 AM,1.52,0,
95,0.7,0,1,"(10.0, 10.0)",1,-1000,3/27/2014 10:14:21 AM,1.501,0,
96,0.7,0,1,"(10.0, 10.0)",1,-1000,3/27/2014 10:14:22 AM,1.515,0,
97,0.7,0,1,"(10.0, 10.0)",1,-1000,3/27/2014 10:14:24 AM,0.916,0,
98,0.7,0,1,"(10.0, 10.0)",1,-1000,3/27/2014 10:14:25 AM,1.334,0,
99,0.7,0,1,"(10.0, 10.0)",1,-1000,3/27/2014 10:14:26 AM,2.393,1,
100,0.7,0,1,"(10.0, 10.0)",1,-1000,3/27/2014 10:14:29 AM,1.516,0,
101,0.7,0,1,"(10.0, 10.0)",1,-1000,3/27/2014 10:14:31 AM,1.518,0,
102,0.7,0,1,"(10.0, 10.0)",1,-1000,3/27/2014 10:14:32 AM,0.521,0,
103,0.7,0,1,"(10.0, 10.0)",1,-1000,3/27/2014 10:14:33 AM,2.412,1,
104,0.7,0,1,"(10.0, 10.0)",1,-1000,3/27/2014 10:14:35 AM,3.473,3,
105,0.7,0,1,"(10.0, 10.0)",1,-1000,3/27/2014 10:14:39 AM,1.531,0,
106,0.7,0,1,"(10.0, 10.0)",1,-1000,3/27/2014 10:14:41 AM,1.528,0,
107,0.7,0,1,"(10.0, 10.0)",1,-1000,3/27/2014 10:14:42 AM,2.259,1,
108,0.7,0,1,"(10.0, 10.0)",1,-1000,3/27/2014 10:14:45 AM,1.522,0,
109,0.7,0,1,"(10.0, 10.0)",1,-1000,3/27/2014 10:14:46 AM,1.216,0,
110,0.7,0,1,"(10.0, 10.0)",1,-1000,3/27/2014 10:14:48 AM,2.394,1,
111,0.7,0,1,"(10.0, 10.0)",1,-1000,3/27/2014 10:14:50 AM,2.211,1,
112,0.7,0,1,"(10.0, 10.0)",1,-1000,3/27/2014 10:14:52 AM,1.515,0,
113,0.7,0,1,"(10.0, 10.0)",1,-1000,3/27/2014 10:14:54 AM,2.159,1,
114,0.7,0,1,"(10.0, 10.0)",1,-1000,3/27/2014 10:14:56 AM,2.043,1,
115,0.7,0,1,"(10.0, 10.0)",1,-1000,3/27/2014 10:14:58 AM,2.397,1,
116,0.7,0,1,"(10.0, 10.0)",1,-1000,3/27/2014 10:15:01 AM,2.391,1,
117,0.7,0,1,"(10.0, 10.0)",1,-1000,3/27/2014 10:15:03 AM,3.275,2,
118,0.7,0,1,"(10.0, 10.0)",1,-1000,3/27/2014 10:15:07 AM,2.083,1,
119,0.7,0,1,"(10.0, 10.0)",1,-1000,3/27/2014 10:15:09 AM,1.515,0,
120,0.7,0,1,"(10.0, 10.0)",1,-1000,3/27/2014 10:15:11 AM,1.521,0,
121,0.7,0,1,"(10.0, 10.0)",1,-1000,3/27/2014 10:15:12 AM,1.5,0,
122,0.7,0,1,"(10.0, 10.0)",1,-1000,3/27/2014 10:15:14 AM,1.185,0,
123,0.7,0,1,"(10.0, 10.0)",1,-1000,3/27/2014 10:15:15 AM,2.21,1,
124,0.7,0,1,"(10.0, 10.0)",1,-1000,3/27/2014 10:15:17 AM,3.271,2,
125,0.7,0,1,"(10.0, 10.0)",1,-1000,3/27/2014 10:15:21 AM,2.679,2,
126,0.7,0,1,"(10.0, 10.0)",1,-1000,3/27/2014 10:15:24 AM,2.182,1,
127,0.7,0,1,"(10.0, 10.0)",1,-1000,3/27/2014 10:15:26 AM,9.391,9,
128,0.7,0,1,"(10.0, 10.0)",1,-1000,3/27/2014 10:15:35 AM,1.526,0,
129,0.7,0,1,"(10.0, 10.0)",1,-1000,3/27/2014 10:15:37 AM,1.512,0,
130,0.7,0,1,"(10.0, 10.0)",1,-1000,3/27/2014 10:15:39 AM,0.309,0,
